[{
  "name" : "_BaseClass"
},
{
  "name" : "Antragsteller"
},
{
  "name" : "Aqasys Eingang Ordner"
},
{
  "name" : "Arbeitsmittel Ordner"
},
{
  "name" : "Außendienst"
},
{
  "name" : "AW Kanalgebiete"
},
{
  "name" : "Batterien"
},
{
  "name" : "Baugruppen_Ordner"
},
{
  "name" : "Dienstleisterverzeichnis"
},
{
  "name" : "DNA Person Ordner"
},
{
  "name" : "EDV / Kommunikation Ordner"
},
{
  "name" : "ESN Bereitschaft Ordner"
},
{
  "name" : "externe Dienstleister"
},
{
  "name" : "Exzenterschneckenpumpe"
},
{
  "name" : "Fahrzeuge Ordner"
},
{
  "name" : "Filterkreisdrosseln_Ordner"
},
{
  "name" : "Frequenzumrichter_Ordner"
},
{
  "name" : "Gebläsestation"
},
{
  "name" : "Gefahrstoffe"
},
{
  "name" : "Gemeinde"
},
{
  "name" : "Gesellschaft"
},
{
  "name" : "GSP Strecke Ordner"
},
{
  "name" : "GU Objekte Ordner"
},
{
  "name" : "HA-Akte Leistung Ordner"
},
{
  "name" : "HA-Akte Ordner"
},
{
  "name" : "HMI_Ordner"
},
{
  "name" : "HSP Schaltanlage"
},
{
  "name" : "Installationsort"
},
{
  "name" : "Kläranlage"
},
{
  "name" : "Kondensatoren_Ordner"
},
{
  "name" : "Kreiselpumpe"
},
{
  "name" : "Leistungsschütz_Ordner"
},
{
  "name" : "Leitungsschutzschalter_Ordner"
},
{
  "name" : "LWL_Ordner"
},
{
  "name" : "Messgeräte_Ordner"
},
{
  "name" : "Motorschutzschalter_Ordner"
},
{
  "name" : "Netzwerk_Ordner"
},
{
  "name" : "NKW / NFZ Ordner"
},
{
  "name" : "NOT_AUS_Ordner"
},
{
  "name" : "PKW Ordner"
},
{
  "name" : "RCD_Ordner"
},
{
  "name" : "Regler_Ordner"
},
{
  "name" : "Relais_Ordner"
},
{
  "name" : "Sachbearbeiter"
},
{
  "name" : "SB Schwimmbad Ordner"
},
{
  "name" : "Schalter_Ordner"
},
{
  "name" : "Schaltschränke_Ordner"
},
{
  "name" : "Schaltschrankklimatisierung_Ordner"
},
{
  "name" : "Schlammbehandlung"
},
{
  "name" : "Schütz"
},
{
  "name" : "Sicherungselemente_Ordner"
},
{
  "name" : "Sicherungslasttrenner_Ordner"
},
{
  "name" : "SPS_Ordner"
},
{
  "name" : "Standorte"
},
{
  "name" : "Steuerspannungsversorgung"
},
{
  "name" : "Störung Abwasser"
},
{
  "name" : "Störung Allgemein"
},
{
  "name" : "Störung Fernwärme"
},
{
  "name" : "Störung Gas"
},
{
  "name" : "Störung Strom"
},
{
  "name" : "Störung Wasser"
},
{
  "name" : "Stromzähler_Ordner"
},
{
  "name" : "Transportmittel Ordner"
},
{
  "name" : "Trinkwasseranlage"
},
{
  "name" : "Überspannungsableiter_Ordner"
},
{
  "name" : "Überwachung_Ordner"
},
{
  "name" : "Wechselrichter_Ordner"
}
]